{
    "$schema": "https://github.com/EHfive/v2ray-jsonschema/raw/main/v5-config.schema.json",
    "log": {
        "access": {
            "type": "None"
        },
        "error": {
            "type": "Console",
            "level": "Error"
        }
    }, 
    "dns": {
        "nameServer": [{
            "address": {
                "network": "UDP",
                "address": "8.8.8.8",
                "port": 53
            },
            "address": {
                "network": "UDP",
                "address": "8.8.4.4",
                "port": 53
            }
        }],
        "staticHosts": [{
            "type": "Full",
            "domain": "xxx.org",
            "ip": ["x.x.x.x"]
        }],
        "domainMatcher": "mph",
        "queryStrategy": "USE_IP",
        "cacheStrategy": "CacheEnabled",
        "fallbackStrategy": "DisabledIfAnyMatch"
    },
    "router": {
        "domainStrategy": "IpIfNonMatch",
        "rule": [{
            "tag": "direct",
            "domain": [{
                "type": "Plain",
                "value": "xxx.org"
            }]
        },{
            "tag": "direct",
            "geoip": [{
                "cidr": [{
                    "ipAddr": "192.168.0.0",
                    "prefix": 16
                },{
                    "ipAddr": "10.0.0.0",
                    "prefix": 8
                },{
                    "ipAddr": "172.16.0.0",
                    "prefix": 12
                }]
            }]
        },{
            "tag": "direct",
            "geoDomain": [{
                "code": "cn",
                "filePath": "../share/v2ray/geosite.dat"
            }]
        },{
            "tag": "direct",
            "geoip": [{
                "code": "cn",
                "filePath": "../share/v2ray/geoip.dat"
            }]
        }]
    },
    "inbounds": [{
        "protocol": "socks",
        "settings": {
            "packetEncoding": "Packet",
            "udpEnabled": true
        },
        "port": "39393",
        "listen": "127.0.0.1",
        "sniffing": {
            "enabled": true,
            "destOverride": ["http","tls","quic"],
            "metadataOnly": true
        }
    },{
        "protocol": "http",
        "port": "39399",
        "listen": "127.0.0.1",
        "sniffing": {
            "enabled": true,
            "destOverride": ["http","tls","quic"],
            "metadataOnly": true
        }
    }],
    "outbounds": [{
        "protocol": "vmess",
        "settings": {
            "address": "x.x.x.x/xxx.org",
            "port": 443,
            "uuid": "xxxx.uuid.xxxx"
        },
        "tag": "yukon",
        "streamSettings": {
            "transport": "ws",
            "transportSettings": {
                "path": "/_path_",
                "header": [{
                    "key": "Host",
                    "value": "xxx.org"
                }],
                "maxEarlyData": 4096
            },
            "security": "utls",
            "securitySettings": {
                "tlsConfig": {
                    "serverName": "xxx.org"
                },
                "imitate": "firefox_auto",
                "noSNI": false,
                "forceAlpn": "TRANSPORT_PREFERENCE_TAKE_PRIORITY"
            }
        }
    },{
        "protocol": "freedom",
        "tag": "direct"
    }]
}

