{
    "$schema": "https://github.com/EHfive/v2ray-jsonschema/raw/main/v5-config.schema.json",
    "log": {
        "access": {
            "type": "None"
        },
        "error": {
            "type": "Console",
            "level": "Error"
        }
    },
    "inbounds": [{
      "protocol": "vmess",
      "settings": {
          "users": ["xxxx-uuid-xxxx"]
      },
      "port": "39393",
      "listen": "127.0.0.1",
      "streamSettings": {
          "transport": "grpc",
          "transportSettings": {
          	"serviceName": "_path_"
	  }
      }
    }],
    "outbounds": [{
        "protocol": "freedom",
        "tag": "direct"
    }]
}

